Data Cleaning
…
drop_na.tbl_ts <- function(ts)  tsibble::as_tsibble(tidyr:::drop_na.data.frame(ts))

#drop rows with NA for vaccine percentage
mmr_cov <- mmr_cov %>% drop_na(estimate_pct)

#create a column with percent cast to numeric
mmr_cov$num_pct <- mmr_cov$estimate_pct

mmr_cov$num_pct <- as.numeric(sub("%","",mmr_cov$num_pct))/100

#summary statistics for vaccine coverage, per state
group_by(mmr_cov, geography) %>% 
  get_summary_stats(num_pct)

# A tibble: 53 × 14
   geography     variable     n   min   max median    q1    q3   iqr   mad  mean
   <chr>         <fct>    <dbl> <dbl> <dbl>  <dbl> <dbl> <dbl> <dbl> <dbl> <dbl>
 1 Alabama       num_pct     14 0.866 0.949  0.935 0.927 0.939 0.011 0.009 0.929
 2 Alaska        num_pct      8 0.78  0.944  0.903 0.841 0.929 0.088 0.054 0.884
 3 Arizona       num_pct     14 0.893 0.95   0.937 0.921 0.942 0.021 0.013 0.929
 4 Arkansas      num_pct     14 0.859 0.983  0.922 0.911 0.94  0.029 0.025 0.919
 5 California    num_pct     14 0.923 0.973  0.957 0.933 0.965 0.032 0.018 0.95 
 6 Colorado      num_pct     13 0.817 0.911  0.873 0.869 0.884 0.015 0.015 0.875
 7 Connecticut   num_pct     14 0.953 0.985  0.97  0.963 0.973 0.01  0.007 0.968
 8 Delaware      num_pct     13 0.897 0.985  0.964 0.957 0.976 0.019 0.018 0.96 
 9 District of … num_pct      6 0.789 0.92   0.88  0.834 0.895 0.062 0.044 0.865
10 Florida       num_pct     14 0.881 0.941  0.932 0.918 0.936 0.018 0.009 0.925
# ℹ 43 more rows
# ℹ 3 more variables: sd <dbl>, se <dbl>, ci <dbl>
…
fc_states %>%
  as_tibble() %>%
  filter(year >= 2025) %>%
  select(
    geography,
    year,
    point = .mean
  )

# A tibble: 52 × 3
   geography             year point
   <chr>                <dbl> <dbl>
 1 Alabama               2025 0.928
 2 Alaska                2025 0.843
 3 Arizona               2025 0.879
 4 Arkansas              2025 0.925
 5 California            2025 0.962
 6 Colorado              2025 0.882
 7 Connecticut           2025 0.977
 8 Delaware              2025 0.938
 9 District of Columbia  2025 0.854
10 Florida               2025 0.841
# ℹ 42 more rows
…
